2018-12-18 17:49 -08:00: Executing (default): CREATE TABLE IF NOT EXISTS `employee` (`id` INTEGER auto_increment , `first_name` VARCHAR(255), `last_name` VARCHAR(255), `mobile` VARCHAR(255), `email_id` VARCHAR(100) UNIQUE, `password` VARCHAR(255), PRIMARY KEY (`id`)) ENGINE=InnoDB;
2018-12-18 17:49 -08:00: Executing (default): CREATE TABLE IF NOT EXISTS `employee` (`id` INTEGER auto_increment , `first_name` VARCHAR(255), `last_name` VARCHAR(255), `mobile` VARCHAR(255), `email_id` VARCHAR(100) UNIQUE, `password` VARCHAR(255), PRIMARY KEY (`id`)) ENGINE=InnoDB;
2018-12-18 17:49 -08:00: Executing (default): SHOW INDEX FROM `employee`
2018-12-18 17:49 -08:00: Executing (default): SHOW INDEX FROM `employee`
2018-12-18 17:49 -08:00: DB connection sucessful.
2018-12-18 17:49 -08:00: Executing (default): SELECT count(*) AS `count` FROM `employee` AS `employee` WHERE `employee`.`email_id` = 'selva@gmail.com';
2018-12-18 17:54 -08:00: Executing (default): CREATE TABLE IF NOT EXISTS `employee` (`id` INTEGER auto_increment , `first_name` VARCHAR(255), `last_name` VARCHAR(255), `mobile` VARCHAR(255), `email_id` VARCHAR(100), `password` VARCHAR(255), UNIQUE `employee_email_id_unique` (`email_id`), PRIMARY KEY (`id`)) ENGINE=InnoDB;
2018-12-18 17:54 -08:00: Executing (default): CREATE TABLE IF NOT EXISTS `employee` (`id` INTEGER auto_increment , `first_name` VARCHAR(255), `last_name` VARCHAR(255), `mobile` VARCHAR(255), `email_id` VARCHAR(100), `password` VARCHAR(255), UNIQUE `employee_email_id_unique` (`email_id`), PRIMARY KEY (`id`)) ENGINE=InnoDB;
2018-12-18 17:54 -08:00: Executing (default): SHOW INDEX FROM `employee`
2018-12-18 17:54 -08:00: Executing (default): SHOW INDEX FROM `employee`
2018-12-18 17:54 -08:00: DB connection sucessful.
2018-12-18 17:54 -08:00: Executing (default): SELECT count(*) AS `count` FROM `employee` AS `employee` WHERE `employee`.`email_id` = 'selva@gmail.com';
2018-12-18 17:54 -08:00: Executing (default): INSERT INTO `employee` (`id`,`first_name`,`last_name`,`mobile`,`email_id`,`password`) VALUES (DEFAULT,'jhon','jon','9047265863','selva@gmail.com','nkjefkj');
2018-12-18 17:55 -08:00: Executing (default): CREATE TABLE IF NOT EXISTS `employee` (`id` INTEGER auto_increment , `first_name` VARCHAR(255), `last_name` VARCHAR(255), `mobile` VARCHAR(255), `email_id` VARCHAR(100), `password` VARCHAR(255), PRIMARY KEY (`id`)) ENGINE=InnoDB;
2018-12-18 17:55 -08:00: Executing (default): CREATE TABLE IF NOT EXISTS `employee` (`id` INTEGER auto_increment , `first_name` VARCHAR(255), `last_name` VARCHAR(255), `mobile` VARCHAR(255), `email_id` VARCHAR(100), `password` VARCHAR(255), PRIMARY KEY (`id`)) ENGINE=InnoDB;
2018-12-18 17:55 -08:00: Executing (default): SHOW INDEX FROM `employee`
2018-12-18 17:55 -08:00: Executing (default): SHOW INDEX FROM `employee`
2018-12-18 17:55 -08:00: DB connection sucessful.
2018-12-18 17:56 -08:00: Executing (default): SELECT count(*) AS `count` FROM `employee` AS `employee` WHERE `employee`.`email_id` = 'selvagmail.com';
2018-12-18 17:56 -08:00: Executing (default): SELECT count(*) AS `count` FROM `employee` AS `employee` WHERE `employee`.`email_id` = 'selva@gmail.com';
2018-12-18 21:12 -08:00: Executing (default): CREATE TABLE IF NOT EXISTS `employee` (`id` INTEGER auto_increment , `first_name` VARCHAR(255), `last_name` VARCHAR(255), `mobile` VARCHAR(255), `email_id` VARCHAR(100), `password` VARCHAR(255), PRIMARY KEY (`id`)) ENGINE=InnoDB;
2018-12-18 21:12 -08:00: Executing (default): CREATE TABLE IF NOT EXISTS `employee` (`id` INTEGER auto_increment , `first_name` VARCHAR(255), `last_name` VARCHAR(255), `mobile` VARCHAR(255), `email_id` VARCHAR(100), `password` VARCHAR(255), PRIMARY KEY (`id`)) ENGINE=InnoDB;
2018-12-18 21:12 -08:00: Executing (default): SHOW INDEX FROM `employee`
2018-12-18 21:12 -08:00: Executing (default): SHOW INDEX FROM `employee`
2018-12-18 21:12 -08:00: DB connection sucessful.
2018-12-18 21:15 -08:00: Executing (default): SELECT count(*) AS `count` FROM `employee` AS `employee` WHERE `employee`.`email_id` = 'keerthi@gmail.com';
2018-12-18 21:15 -08:00: Executing (default): INSERT INTO `employee` (`id`,`first_name`,`last_name`,`mobile`,`email_id`,`password`) VALUES (DEFAULT,'jhon','jon','9047265863','keerthi@gmail.com','nkjefkj');
2018-12-18 21:16 -08:00: Executing (default): SELECT count(*) AS `count` FROM `employee` AS `employee` WHERE `employee`.`email_id` = 'keerthi@gmail.com';
2018-12-18 21:18 -08:00: Executing (default): SELECT count(*) AS `count` FROM `employee` AS `employee` WHERE `employee`.`email_id` = 'keerthi@gmail.com';
2018-12-18 21:18 -08:00: Executing (default): SELECT count(*) AS `count` FROM `employee` AS `employee` WHERE `employee`.`email_id` = 'keert4hi@gmail.com';
2018-12-18 21:18 -08:00: Executing (default): INSERT INTO `employee` (`id`,`first_name`,`last_name`,`mobile`,`email_id`,`password`) VALUES (DEFAULT,'jhon','jon','9047265863','keert4hi@gmail.com','nkjefkj');
2018-12-18 21:18 -08:00: Executing (default): SELECT count(*) AS `count` FROM `employee` AS `employee` WHERE `employee`.`email_id` = 'keert4hi@gmail.com';
2018-12-18 21:20 -08:00: Executing (default): UPDATE `employee` SET `first_name`='jhon' WHERE `id` = NULL
2018-12-18 21:23 -08:00: Executing (default): UPDATE `employee` SET `first_name`='keerthi' WHERE `id` = NULL
2018-12-18 21:42 -08:00: Executing (default): UPDATE `employee` SET `first_name`='dhivi' WHERE `id` = NULL
2018-12-18 21:56 -08:00: Executing (default): CREATE TABLE IF NOT EXISTS `employee` (`id` INTEGER auto_increment , `first_name` VARCHAR(255), `last_name` VARCHAR(255), `mobile` VARCHAR(255), `email_id` VARCHAR(100), `password` VARCHAR(255), PRIMARY KEY (`id`)) ENGINE=InnoDB;
2018-12-18 21:56 -08:00: Executing (default): CREATE TABLE IF NOT EXISTS `employee` (`id` INTEGER auto_increment , `first_name` VARCHAR(255), `last_name` VARCHAR(255), `mobile` VARCHAR(255), `email_id` VARCHAR(100), `password` VARCHAR(255), PRIMARY KEY (`id`)) ENGINE=InnoDB;
2018-12-18 21:56 -08:00: Executing (default): SHOW INDEX FROM `employee`
2018-12-18 21:56 -08:00: DB connection sucessful.
2018-12-18 21:56 -08:00: Executing (default): SHOW INDEX FROM `employee`
2018-12-18 21:58 -08:00: Executing (default): UPDATE `employee` SET `first_name`='dhivi' WHERE `id` = NULL
2018-12-18 22:14 -08:00: Executing (default): 
2018-12-18 22:14 -08:00: Executing (default): UPDATE `employee` SET `first_name`='dhivi' WHERE `id` = NULL
2018-12-18 22:15 -08:00: Executing (default): UPDATE `employee` SET `first_name`='priya' WHERE `id` = NULL
2018-12-18 22:27 -08:00: Executing (default): UPDATE `employee` SET `first_name`='priya' WHERE `id` = NULL
2018-12-18 22:30 -08:00: Executing (default): UPDATE `employee` SET `first_name`='priya' WHERE `id` = NULL
2018-12-18 22:31 -08:00: Executing (default): CREATE TABLE IF NOT EXISTS `employee` (`id` INTEGER auto_increment , `first_name` VARCHAR(255), `last_name` VARCHAR(255), `mobile` VARCHAR(255), `email_id` VARCHAR(100), `password` VARCHAR(255), PRIMARY KEY (`id`)) ENGINE=InnoDB;
2018-12-18 22:31 -08:00: Executing (default): CREATE TABLE IF NOT EXISTS `employee` (`id` INTEGER auto_increment , `first_name` VARCHAR(255), `last_name` VARCHAR(255), `mobile` VARCHAR(255), `email_id` VARCHAR(100), `password` VARCHAR(255), PRIMARY KEY (`id`)) ENGINE=InnoDB;
2018-12-18 22:31 -08:00: Executing (default): SHOW INDEX FROM `employee`
2018-12-18 22:31 -08:00: Executing (default): SHOW INDEX FROM `employee`
2018-12-18 22:31 -08:00: DB connection sucessful.
